tb/wave.vcd
$date
	Sun May 11 21:12:50 2025
$end

$version
	Synopsys VCS version W-2024.09-SP1_Full64
$end

$timescale
	1ns
$end

$comment Csum: 1 7469565c72c58dd1 $end


$scope module uvm_pkg $end
$var time 64 ! setting_offset $end
$var reg 32 " uvm_global_random_seed [31:0] $end
$var reg 32 # UVM_UNBOUNDED_CONNECTIONS [31:0] $end
$var reg 1 $ uvm_start_uvm_declarations $end
$var reg 32 % setting_verbosity [31:0] $end
$var reg 1 & is_verdi_set_verbosity_called $end
$var reg 1 ' is_uvm_factory_trace_checked $end
$var reg 1 ( is_verdi_trace_fac $end
$upscope $end


$scope module wb_pkg $end
$upscope $end


$scope module clock_and_reset_pkg $end
$upscope $end


$scope module i2c_pkg $end
$upscope $end


$scope module i2c_module_pkg $end
$upscope $end


$scope module hw_top $end
$var reg 32 ) clock_period [31:0] $end
$var reg 1 * run_clock $end
$var reg 1 + clock $end
$var reg 1 , reset $end
$var reg 1 - scl_padoen_oe $end
$var reg 1 . sda_padoen_oe $end
$var reg 1 / scl_pad_o $end
$var reg 1 0 sda_pad_o $end

$scope module cr_if $end
$var reg 1 1 clock_cycle_count_reached $end
$var reg 1 2 clock $end
$var reg 1 , reset $end
$var reg 1 * run_clock $end
$var reg 32 ) clock_period [31:0] $end
$var reg 32 3 reset_delay [31:0] $end
$var reg 32 4 clock_cycles_to_count [31:0] $end

$scope task start_clock $end
$var reg 32 5 input_clock_period [31:0] $end
$var reg 32 6 input_reset_delay [31:0] $end
$var reg 1 7 input_run_clock $end
$upscope $end


$scope task count_clocks $end
$var reg 32 8 new_count [31:0] $end
$upscope $end


$scope task get_current_cycle_count $end
$var reg 32 9 cycles_counted [31:0] $end
$upscope $end

$upscope $end


$scope module wif $end
$var reg 1 2 clk $end
$var reg 1 : cyc $end
$var reg 1 ; stb $end
$var reg 32 < addr [31:0] $end
$var reg 1 = we $end
$var reg 8 > din [7:0] $end
$var reg 8 ? dout [7:0] $end
$var reg 1 @ ack $end
$var reg 1 A valid_sb $end
$var reg 1 B rst_n $end
$var reg 1 C inta $end
$upscope $end


$scope module iif $end
$var wire 1 D scl $end
$var wire 1 E sda $end
$var reg 1 2 clk $end
$var reg 1 B rst_n $end
$var reg 1 F sda_w $end
$var reg 7 G Slave_addr [6:0] $end
$var reg 8 H header [7:0] $end

$scope begin unnamed$$_vcs_0 $end
$upscope $end

$upscope $end


$scope module clkgen $end
$var reg 1 + clock $end
$var wire 1 * run_clock $end
$var reg 32 ) clock_period [31:0] $end
$upscope $end


$scope module i2c $end
$var wire 1 I wb_clk_i $end
$var wire 1 J wb_rst_i $end
$var wire 1 K arst_i $end
$var wire 3 L wb_adr_i [2:0] $end
$var wire 8 M wb_dat_i [7:0] $end
$var reg 8 N wb_dat_o [7:0] $end
$var wire 1 O wb_we_i $end
$var wire 1 P wb_stb_i $end
$var wire 1 Q wb_cyc_i $end
$var reg 1 R wb_ack_o $end
$var reg 1 S wb_inta_o $end
$var wire 1 D scl_pad_i $end
$var wire 1 T scl_pad_o $end
$var wire 1 U scl_padoen_o $end
$var wire 1 E sda_pad_i $end
$var wire 1 V sda_pad_o $end
$var wire 1 W sda_padoen_o $end
$var reg 16 X prer [15:0] $end
$var reg 8 Y ctr [7:0] $end
$var reg 8 Z txr [7:0] $end
$var wire 8 [ rxr [7:0] $end
$var reg 8 \ cr [7:0] $end
$var wire 8 ] sr [7:0] $end
$var wire 1 ^ done $end
$var wire 1 _ core_en $end
$var wire 1 ` ien $end
$var wire 1 a irxack $end
$var reg 1 b rxack $end
$var reg 1 c tip $end
$var reg 1 d irq_flag $end
$var wire 1 e i2c_busy $end
$var wire 1 f i2c_al $end
$var reg 1 g al $end
$var wire 1 K rst_i $end
$var wire 1 h wb_wacc $end
$var wire 1 i sta $end
$var wire 1 j sto $end
$var wire 1 k rd $end
$var wire 1 l wr $end
$var wire 1 m ack $end
$var wire 1 n iack $end

$scope module byte_controller $end
$var wire 1 I clk $end
$var wire 1 J rst $end
$var wire 1 K nReset $end
$var wire 1 _ ena $end
$var wire 16 X clk_cnt [15:0] $end
$var wire 1 o start $end
$var wire 1 p stop $end
$var wire 1 q read $end
$var wire 1 r write $end
$var wire 1 s ack_in $end
$var wire 8 Z din [7:0] $end
$var reg 1 ^ cmd_ack $end
$var reg 1 a ack_out $end
$var wire 1 e i2c_busy $end
$var wire 1 f i2c_al $end
$var wire 8 [ dout [7:0] $end
$var wire 1 D scl_i $end
$var wire 1 T scl_o $end
$var wire 1 U scl_oen $end
$var wire 1 E sda_i $end
$var wire 1 V sda_o $end
$var wire 1 W sda_oen $end
$var reg 4 t core_cmd [3:0] $end
$var reg 1 u core_txd $end
$var wire 1 v core_ack $end
$var wire 1 w core_rxd $end
$var reg 8 [ sr [7:0] $end
$var reg 1 x shift $end
$var reg 1 y ld $end
$var wire 1 z go $end
$var reg 3 { dcnt [2:0] $end
$var wire 1 | cnt_done $end
$var reg 5 } c_state [4:0] $end

$scope module bit_controller $end
$var wire 1 I clk $end
$var wire 1 J rst $end
$var wire 1 K nReset $end
$var wire 1 _ ena $end
$var wire 16 X clk_cnt [15:0] $end
$var wire 4 t cmd [3:0] $end
$var reg 1 v cmd_ack $end
$var reg 1 e busy $end
$var reg 1 f al $end
$var wire 1 u din $end
$var reg 1 w dout $end
$var wire 1 D scl_i $end
$var wire 1 T scl_o $end
$var reg 1 ~ scl_oen $end
$var wire 1 E sda_i $end
$var wire 1 V sda_o $end
$var reg 1 "! sda_oen $end
$var reg 2 "" cSCL [1:0] $end
$var reg 2 "# cSDA [1:0] $end
$var reg 3 "$ fSCL [2:0] $end
$var reg 3 "% fSDA [2:0] $end
$var reg 1 "& sSCL $end
$var reg 1 "' sSDA $end
$var reg 1 "( dSCL $end
$var reg 1 ") dSDA $end
$var reg 1 "* dscl_oen $end
$var reg 1 "+ sda_chk $end
$var reg 1 ", clk_en $end
$var reg 1 "- slave_wait $end
$var reg 16 ". cnt [15:0] $end
$var reg 14 "/ filter_cnt [13:0] $end
$var reg 18 "0 c_state [17:0] $end
$var wire 1 "1 scl_sync $end
$var reg 1 "2 sta_condition $end
$var reg 1 "3 sto_condition $end
$var reg 1 "4 cmd_stop $end
$upscope $end

$upscope $end

$upscope $end

$upscope $end


$scope module top $end

$scope begin unnamed$$_vcs_2 $end
$upscope $end

$upscope $end

$enddefinitions $end

#0
$dumpvars
1'
0&
0(
1$
bxxxxxxxxxxxxxxxxxxxxxxxxxxxxxxxxxxxxxxxxxxxxxxxxxxxxxxxxxxxxxxxx !
b11111111111111111111111111111111 #
b00000000000000000000000000000000 %
b01000010000001111100110001000111 "
0+
b00000000000000000000000000001010 )
17
b00000000000000000000000000000000 4
b00000000000000000000000000000101 3
b00000000000000000000000000000000 8
b00000000000000000000000000000000 9
b00000000000000000000000000001010 5
b00000000000000000000000000000101 6
b00000000 ?
b00000000 >
b00000000000000000000000000000000 <
b00000000 H
b1010101 G
xa
xg
xv
xw
x~
x"!
xe
xf
x",
x^
x"4
x|
xu
x"(
x")
x"*
xz
xd
xy
xb
x"&
x"'
x"1
x"+
xx
x"-
x"2
x"3
x_
x`
xi
xj
xk
xl
xm
xn
xo
xp
xq
xr
xs
xc
xR
xS
0h
bxxxxxxxxxxxxxxxxxx "0
bxxxxxxxx [
bxx ""
bxx "#
bxxxxx }
bxxxxxxxxxxxxxxxx ".
bxxxx t
bxxxxxxxx \
bxxxxxxxx Y
bxxx {
bxxx "$
bxxx "%
bxxxxxxxxxxxxxx "/
bxxxxxxxxxxxxxxxx X
bxxx000xx ]
bxxxxxxxx Z
bxxxxxxxx N
0C
x-
xU
x.
xW
0/
0T
00
0V
b000 L
b00000000 M
0J
0Q
0P
0O
0,
1*
02
1K
0B
0I
01
0@
0:
0;
0A
0=
xF
xD
xE
$end
#5
1+
1I
12
b00000000000000000000000000000100 3
1,
0K
1B
0"-
b00000000000000 "/
b111 "$
b111 "%
#6
0R
bxxxxx000 \
0n
0x
0y
0^
0",
0v
b1111111111111111 X
b00000000 Y
0_
0`
b00000000 Z
b00000000 \
0i
0j
0k
0l
0m
0o
0p
0q
0r
0s
0z
0g
0b
0c
0d
0S
b00000000 [
b000 {
1|
b0000 t
0u
b00000 }
0a
b0000000000000000 ".
1",
b00 ""
b00 "#
1"&
1"'
1"(
1")
0"2
0"3
0e
0"4
0f
b000000000000000000 "0
1~
1U
1-
1"!
1W
1.
0"+
b00000000 ]
0"1
1D
#10
0+
0I
02
#15
1+
1I
12
b00000000000000000000000000000011 3
#16
b11111111 N
b11111111 ?
1"*
#20
0+
0I
02
#25
1+
1I
12
b00000000000000000000000000000010 3
#30
0+
0I
02
#35
1+
1I
12
b00000000000000000000000000000001 3
#40
0+
0I
02
#45
1+
1I
12
b00000000000000000000000000000000 3
#50
0+
0I
02
#55
1+
1I
12
0,
1K
0B
#60
0+
0I
02
#65
1+
1I
12
b01 ""
b0x "#
b110 "$
b110 "%
#66
b1111111111111111 ".
#70
0+
0I
02
1:
1Q
1;
1P
b00000000000000000000000001000000 <
1=
1O
b00110001 >
b00110001 M
#75
1+
1I
12
b11 ""
bxx "#
b100 "$
b100 "%
#76
1R
1h
1@
#80
0+
0I
02
#85
1+
1I
12
b001 "$
b00x "%
#86
0R
0h
0@
0"&
0"'
b1111111100110001 X
1"1
0:
0Q
0;
0P
b00000000000000000000000000000000 <
0=
0O
b00000000 >
b00000000 M
#90
0+
0I
02
1:
1Q
1;
1P
b00000000000000000000000001000001 <
b001 L
1=
1O
#95
1+
1I
12
b011 "$
b0xx "%
#96
1R
1h
1@
b1111111100110001 ".
0"(
0")
0"1
#100
0+
0I
02
#105
1+
1I
12
b111 "$
bxxx "%
#106
0R
0h
0@
1"&
x"'
b0000000000110001 X
0:
0Q
0;
0P
b00000000000000000000000000000000 <
b000 L
0=
0O
#110
0+
0I
02
1:
1Q
1;
1P
b00000000000000000000000001000010 <
b010 L
1=
1O
b10000000 >
b10000000 M
#115
1+
1I
12
#116
1R
1h
1@
b00000000 N
b00000000 ?
b0000000000110001 ".
1"(
x")
x"3
#120
0+
0I
02
#125
1+
1I
12
#126
0R
0h
0@
x"2
b10000000 Y
1_
0:
0Q
0;
0P
b00000000000000000000000000000000 <
b000 L
0=
0O
b00000000 >
b00000000 M
zF
1E
#130
0+
0I
02
1:
1Q
1;
1P
b00000000000000000000000001000011 <
b011 L
1=
1O
b10101010 >
b10101010 M
#135
1+
1I
12
bx1 "#
b00000000001100 "/
#136
1R
1h
1@
b0000000000110000 ".
0",
xe
b0x000000 ]
#140
0+
0I
02
#145
1+
1I
12
b11 "#
b00000000001011 "/
#146
0R
0h
0@
b0000000000101111 ".
b10101010 Z
0:
0Q
0;
0P
b00000000000000000000000000000000 <
b000 L
0=
0O
b00000000 >
b00000000 M
#150
0+
0I
02
1:
1Q
1;
1P
b00000000000000000000000001000100 <
b100 L
1=
1O
b10010000 >
b10010000 M
#155
1+
1I
12
b00000000001010 "/
#156
1R
1h
1@
b0x000000 N
b0000000000101110 ".
#160
0+
0I
02
#165
1+
1I
12
b00000000001001 "/
#166
0R
0h
0@
b10010000 \
1i
1l
1o
1r
1z
b0000000000101101 ".
0:
0Q
0;
0P
b00000000000000000000000000000000 <
b000 L
0=
0O
b00000000 >
b00000000 M
#170
0+
0I
02
1:
1Q
1;
1P
b00000000000000000000000001000100 <
b100 L
#175
1+
1I
12
b00000000001000 "/
#176
1R
1@
1c
b00001 }
b0001 t
1y
b0000000000101100 ".
b0x000010 ]
#180
0+
0I
02
#185
1+
1I
12
b00000000000111 "/
#186
0R
0@
b0x000010 N
b00000010 ?
b10101010 [
b111 {
0|
0y
b0000000000101011 ".
0:
0Q
0;
0P
b00000000000000000000000000000000 <
b000 L
#190
0+
0I
02
1:
1Q
1;
1P
b00000000000000000000000001000100 <
b100 L
#195
1+
1I
12
b00000000000110 "/
#196
1R
1@
1u
b0000000000101010 ".
#200
0+
0I
02
#205
1+
1I
12
b00000000000101 "/
#206
0R
0@
b0000000000101001 ".
0:
0Q
0;
0P
b00000000000000000000000000000000 <
b000 L
#210
0+
0I
02
1:
1Q
1;
1P
b00000000000000000000000001000100 <
b100 L
#215
1+
1I
12
b00000000000100 "/
#216
1R
1@
b0000000000101000 ".
#220
0+
0I
02
#225
1+
1I
12
b00000000000011 "/
#226
0R
0@
b0000000000100111 ".
0:
0Q
0;
0P
b00000000000000000000000000000000 <
b000 L
#230
0+
0I
02
1:
1Q
1;
1P
b00000000000000000000000001000100 <
b100 L
#235
1+
1I
12
b00000000000010 "/
#236
1R
1@
b0000000000100110 ".
#240
0+
0I
02
#245
1+
1I
12
b00000000000001 "/
#246
0R
0@
b0000000000100101 ".
0:
0Q
0;
0P
b00000000000000000000000000000000 <
b000 L
#250
0+
0I
02
1:
1Q
1;
1P
b00000000000000000000000001000100 <
b100 L
#255
1+
1I
12
b00000000000000 "/
#256
1R
1@
b0000000000100100 ".
#260
0+
0I
02
#265
1+
1I
12
b00000000001100 "/
bxx1 "%
#266
0R
0@
b0000000000100011 ".
0:
0Q
0;
0P
b00000000000000000000000000000000 <
b000 L
#270
0+
0I
02
1:
1Q
1;
1P
b00000000000000000000000001000100 <
b100 L
#275
1+
1I
12
b00000000001011 "/
#276
1R
1@
b0000000000100010 ".
#280
0+
0I
02
#285
1+
1I
12
b00000000001010 "/
#286
0R
0@
b0000000000100001 ".
0:
0Q
0;
0P
b00000000000000000000000000000000 <
b000 L
#290
0+
0I
02
1:
1Q
1;
1P
b00000000000000000000000001000100 <
b100 L
#295
1+
1I
12
b00000000001001 "/
#296
1R
1@
b0000000000100000 ".
#300
0+
0I
02
#305
1+
1I
12
b00000000001000 "/
#306
0R
0@
b0000000000011111 ".
0:
0Q
0;
0P
b00000000000000000000000000000000 <
b000 L
#310
0+
0I
02
1:
1Q
1;
1P
b00000000000000000000000001000100 <
b100 L
#315
1+
1I
12
b00000000000111 "/
#316
1R
1@
b0000000000011110 ".
#320
0+
0I
02
#325
1+
1I
12
b00000000000110 "/
#326
0R
0@
b0000000000011101 ".
0:
0Q
0;
0P
b00000000000000000000000000000000 <
b000 L
#330
0+
0I
02
1:
1Q
1;
1P
b00000000000000000000000001000100 <
b100 L
#335
1+
1I
12
b00000000000101 "/
#336
1R
1@
b0000000000011100 ".
#340
0+
0I
02
#345
1+
1I
12
b00000000000100 "/
#346
0R
0@
b0000000000011011 ".
0:
0Q
0;
0P
b00000000000000000000000000000000 <
b000 L
#350
0+
0I
02
1:
1Q
1;
1P
b00000000000000000000000001000100 <
b100 L
#355
1+
1I
12
b00000000000011 "/
#356
1R
1@
b0000000000011010 ".
#360
0+
0I
02
#365
1+
1I
12
b00000000000010 "/
#366
0R
0@
b0000000000011001 ".
0:
0Q
0;
0P
b00000000000000000000000000000000 <
b000 L
#370
0+
0I
02
1:
1Q
1;
1P
b00000000000000000000000001000100 <
b100 L
#375
1+
1I
12
b00000000000001 "/
#376
1R
1@
b0000000000011000 ".
#380
0+
0I
02
#385
1+
1I
12
b00000000000000 "/
#386
0R
0@
b0000000000010111 ".
0:
0Q
0;
0P
b00000000000000000000000000000000 <
b000 L
#390
0+
0I
02
1:
1Q
1;
1P
b00000000000000000000000001000100 <
b100 L
#395
1+
1I
12
b00000000001100 "/
bx11 "%
#396
1R
1@
b0000000000010110 ".
#400
0+
0I
02
#405
1+
1I
12
b00000000001011 "/
#406
0R
0@
b0000000000010101 ".
1"'
0:
0Q
0;
0P
b00000000000000000000000000000000 <
b000 L
#410
0+
0I
02
1:
1Q
1;
1P
b00000000000000000000000001000100 <
b100 L
#415
1+
1I
12
b00000000001010 "/
#416
1R
1@
b0000000000010100 ".
1")
0"2
#420
0+
0I
02
#425
1+
1I
12
b00000000001001 "/
#426
0R
0@
b0000000000010011 ".
0"3
0:
0Q
0;
0P
b00000000000000000000000000000000 <
b000 L
#430
0+
0I
02
1:
1Q
1;
1P
b00000000000000000000000001000100 <
b100 L
#435
1+
1I
12
b00000000001000 "/
#436
1R
1@
b0000000000010010 ".
#440
0+
0I
02
#445
1+
1I
12
b00000000000111 "/
#446
0R
0@
b0000000000010001 ".
0:
0Q
0;
0P
b00000000000000000000000000000000 <
b000 L
#450
0+
0I
02
1:
1Q
1;
1P
b00000000000000000000000001000100 <
b100 L
#455
1+
1I
12
b00000000000110 "/
#456
1R
1@
b0000000000010000 ".
#460
0+
0I
02
#465
1+
1I
12
b00000000000101 "/
#466
0R
0@
b0000000000001111 ".
0:
0Q
0;
0P
b00000000000000000000000000000000 <
b000 L
#470
0+
0I
02
1:
1Q
1;
1P
b00000000000000000000000001000100 <
b100 L
#475
1+
1I
12
b00000000000100 "/
#476
1R
1@
b0000000000001110 ".
#480
0+
0I
02
#485
1+
1I
12
b00000000000011 "/
#486
0R
0@
b0000000000001101 ".
0:
0Q
0;
0P
b00000000000000000000000000000000 <
b000 L
#490
0+
0I
02
1:
1Q
1;
1P
b00000000000000000000000001000100 <
b100 L
#495
1+
1I
12
b00000000000010 "/
#496
1R
1@
b0000000000001100 ".
#500
0+
0I
02
#505
1+
1I
12
b00000000000001 "/
#506
0R
0@
b0000000000001011 ".
0:
0Q
0;
0P
b00000000000000000000000000000000 <
b000 L
#510
0+
0I
02
1:
1Q
1;
1P
b00000000000000000000000001000100 <
b100 L
#515
1+
1I
12
b00000000000000 "/
#516
1R
1@
b0000000000001010 ".
#520
0+
0I
02
#525
1+
1I
12
b00000000001100 "/
b111 "%
#526
0R
0@
b0000000000001001 ".
0:
0Q
0;
0P
b00000000000000000000000000000000 <
b000 L
#530
0+
0I
02
1:
1Q
1;
1P
b00000000000000000000000001000100 <
b100 L
#535
1+
1I
12
b00000000001011 "/
#536
1R
1@
b0000000000001000 ".
#540
0+
0I
02
#545
1+
1I
12
b00000000001010 "/
#546
0R
0@
b0000000000000111 ".
0:
0Q
0;
0P
b00000000000000000000000000000000 <
b000 L
#550
0+
0I
02
1:
1Q
1;
1P
b00000000000000000000000001000100 <
b100 L
#555
1+
1I
12
b00000000001001 "/
#556
1R
1@
b0000000000000110 ".
#560
0+
0I
02
#565
1+
1I
12
b00000000001000 "/
#566
0R
0@
b0000000000000101 ".
0:
0Q
0;
0P
b00000000000000000000000000000000 <
b000 L
#570
0+
0I
02
1:
1Q
1;
1P
b00000000000000000000000001000100 <
b100 L
#575
1+
1I
12
b00000000000111 "/
#576
1R
1@
b0000000000000100 ".
#580
0+
0I
02
#585
1+
1I
12
b00000000000110 "/
#586
0R
0@
b0000000000000011 ".
0:
0Q
0;
0P
b00000000000000000000000000000000 <
b000 L
#590
0+
0I
02
1:
1Q
1;
1P
b00000000000000000000000001000100 <
b100 L
#595
1+
1I
12
b00000000000101 "/
#596
1R
1@
b0000000000000010 ".
#600
0+
0I
02
#605
1+
1I
12
b00000000000100 "/
#606
0R
0@
b0000000000000001 ".
0:
0Q
0;
0P
b00000000000000000000000000000000 <
b000 L
#610
0+
0I
02
1:
1Q
1;
1P
b00000000000000000000000001000100 <
b100 L
#615
1+
1I
12
b00000000000011 "/
#616
1R
1@
b0000000000000000 ".
#620
0+
0I
02
#625
1+
1I
12
b00000000000010 "/
#626
0R
0@
b0000000000110001 ".
1",
0:
0Q
0;
0P
b00000000000000000000000000000000 <
b000 L
#630
0+
0I
02
1:
1Q
1;
1P
b00000000000000000000000001000100 <
b100 L
#635
1+
1I
12
b00000000000001 "/
#636
1R
1@
b0000000000110000 ".
0",
b000000000000000001 "0
#640
0+
0I
02
#645
1+
1I
12
b00000000000000 "/
#646
0R
0@
b0000000000101111 ".
0:
0Q
0;
0P
b00000000000000000000000000000000 <
b000 L
#650
0+
0I
02
1:
1Q
1;
1P
b00000000000000000000000001000100 <
b100 L
#655
1+
1I
12
b00000000001100 "/
#656
1R
1@
b0000000000101110 ".
#660
0+
0I
02
#665
1+
1I
12
b00000000001011 "/
#666
0R
0@
b0000000000101101 ".
0:
0Q
0;
0P
b00000000000000000000000000000000 <
b000 L
#670
0+
0I
02
1:
1Q
1;
1P
b00000000000000000000000001000100 <
b100 L
#675
1+
1I
12
b00000000001010 "/
#676
1R
1@
b0000000000101100 ".
#680
0+
0I
02
#685
1+
1I
12
b00000000001001 "/
#686
0R
0@
b0000000000101011 ".
0:
0Q
0;
0P
b00000000000000000000000000000000 <
b000 L
#690
0+
0I
02
1:
1Q
1;
1P
b00000000000000000000000001000100 <
b100 L
#695
1+
1I
12
b00000000001000 "/
#696
1R
1@
b0000000000101010 ".
#700
0+
0I
02
#705
1+
1I
12
b00000000000111 "/
#706
0R
0@
b0000000000101001 ".
0:
0Q
0;
0P
b00000000000000000000000000000000 <
b000 L
#710
0+
0I
02
1:
1Q
1;
1P
b00000000000000000000000001000100 <
b100 L
#715
1+
1I
12
b00000000000110 "/
#716
1R
1@
b0000000000101000 ".
#720
0+
0I
02
#725
1+
1I
12
b00000000000101 "/
#726
0R
0@
b0000000000100111 ".
0:
0Q
0;
0P
b00000000000000000000000000000000 <
b000 L
#730
0+
0I
02
1:
1Q
1;
1P
b00000000000000000000000001000100 <
b100 L
#735
1+
1I
12
b00000000000100 "/
#736
1R
1@
b0000000000100110 ".
#740
0+
0I
02
#745
1+
1I
12
b00000000000011 "/
#746
0R
0@
b0000000000100101 ".
0:
0Q
0;
0P
b00000000000000000000000000000000 <
b000 L
#750
0+
0I
02
1:
1Q
1;
1P
b00000000000000000000000001000100 <
b100 L
#755
1+
1I
12
b00000000000010 "/
#756
1R
1@
b0000000000100100 ".
#760
0+
0I
02
#765
1+
1I
12
b00000000000001 "/
#766
0R
0@
b0000000000100011 ".
0:
0Q
0;
0P
b00000000000000000000000000000000 <
b000 L
#770
0+
0I
02
1:
1Q
1;
1P
b00000000000000000000000001000100 <
b100 L
#775
1+
1I
12
b00000000000000 "/
#776
1R
1@
b0000000000100010 ".
#780
0+
0I
02
#785
1+
1I
12
b00000000001100 "/
#786
0R
0@
b0000000000100001 ".
0:
0Q
0;
0P
b00000000000000000000000000000000 <
b000 L
#790
0+
0I
02
1:
1Q
1;
1P
b00000000000000000000000001000100 <
b100 L
#795
1+
1I
12
b00000000001011 "/
#796
1R
1@
b0000000000100000 ".
#800
0+
0I
02
#805
1+
1I
12
b00000000001010 "/
#806
0R
0@
b0000000000011111 ".
0:
0Q
0;
0P
b00000000000000000000000000000000 <
b000 L
#810
0+
0I
02
1:
1Q
1;
1P
b00000000000000000000000001000100 <
b100 L
#815
1+
1I
12
b00000000001001 "/
#816
1R
1@
b0000000000011110 ".
#820
0+
0I
02
#825
1+
1I
12
b00000000001000 "/
#826
0R
0@
b0000000000011101 ".
0:
0Q
0;
0P
b00000000000000000000000000000000 <
b000 L
#830
0+
0I
02
1:
1Q
1;
1P
b00000000000000000000000001000100 <
b100 L
#835
1+
1I
12
b00000000000111 "/
#836
1R
1@
b0000000000011100 ".
#840
0+
0I
02
#845
1+
1I
12
b00000000000110 "/
#846
0R
0@
b0000000000011011 ".
0:
0Q
0;
0P
b00000000000000000000000000000000 <
b000 L
#850
0+
0I
02
1:
1Q
1;
1P
b00000000000000000000000001000100 <
b100 L
#855
1+
1I
12
b00000000000101 "/
#856
1R
1@
b0000000000011010 ".
#860
0+
0I
02
#865
1+
1I
12
b00000000000100 "/
#866
0R
0@
b0000000000011001 ".
0:
0Q
0;
0P
b00000000000000000000000000000000 <
b000 L
#870
0+
0I
02
1:
1Q
1;
1P
b00000000000000000000000001000100 <
b100 L
#875
1+
1I
12
b00000000000011 "/
#876
1R
1@
b0000000000011000 ".
#880
0+
0I
02
#885
1+
1I
12
b00000000000010 "/
#886
0R
0@
b0000000000010111 ".
0:
0Q
0;
0P
b00000000000000000000000000000000 <
b000 L
#890
0+
0I
02
1:
1Q
1;
1P
b00000000000000000000000001000100 <
b100 L
#895
1+
1I
12
b00000000000001 "/
#896
1R
1@
b0000000000010110 ".
#900
0+
0I
02
#905
1+
1I
12
b00000000000000 "/
#906
0R
0@
b0000000000010101 ".
0:
0Q
0;
0P
b00000000000000000000000000000000 <
b000 L
#910
0+
0I
02
1:
1Q
1;
1P
b00000000000000000000000001000100 <
b100 L
#915
1+
1I
12
b00000000001100 "/
#916
1R
1@
b0000000000010100 ".
#920
0+
0I
02
#925
1+
1I
12
b00000000001011 "/
#926
0R
0@
b0000000000010011 ".
0:
0Q
0;
0P
b00000000000000000000000000000000 <
b000 L
#930
0+
0I
02
1:
1Q
1;
1P
b00000000000000000000000001000100 <
b100 L
#935
1+
1I
12
b00000000001010 "/
#936
1R
1@
b0000000000010010 ".
#940
0+
0I
02
#945
1+
1I
12
b00000000001001 "/
#946
0R
0@
b0000000000010001 ".
0:
0Q
0;
0P
b00000000000000000000000000000000 <
b000 L
#950
0+
0I
02
1:
1Q
1;
1P
b00000000000000000000000001000100 <
b100 L
#955
1+
1I
12
b00000000001000 "/
#956
1R
1@
b0000000000010000 ".
#960
0+
0I
02
#965
1+
1I
12
b00000000000111 "/
#966
0R
0@
b0000000000001111 ".
0:
0Q
0;
0P
b00000000000000000000000000000000 <
b000 L
#970
0+
0I
02
1:
1Q
1;
1P
b00000000000000000000000001000100 <
b100 L
#975
1+
1I
12
b00000000000110 "/
#976
1R
1@
b0000000000001110 ".
#980
0+
0I
02
#985
1+
1I
12
b00000000000101 "/
#986
0R
0@
b0000000000001101 ".
0:
0Q
0;
0P
b00000000000000000000000000000000 <
b000 L
#990
0+
0I
02
1:
1Q
1;
1P
b00000000000000000000000001000100 <
b100 L
#995
1+
1I
12
b00000000000100 "/
#996
1R
1@
b0000000000001100 ".
#1000
0+
0I
02
#1005
1+
1I
12
b00000000000011 "/
#1006
0R
0@
b0000000000001011 ".
0:
0Q
0;
0P
b00000000000000000000000000000000 <
b000 L
#1010
0+
0I
02
1:
1Q
1;
1P
b00000000000000000000000001000100 <
b100 L
#1015
1+
1I
12
b00000000000010 "/
#1016
1R
1@
b0000000000001010 ".
#1020
0+
0I
02
#1025
1+
1I
12
b00000000000001 "/
#1026
0R
0@
b0000000000001001 ".
0:
0Q
0;
0P
b00000000000000000000000000000000 <
b000 L
#1030
0+
0I
02
1:
1Q
1;
1P
b00000000000000000000000001000100 <
b100 L
#1035
1+
1I
12
b00000000000000 "/
#1036
1R
1@
b0000000000001000 ".
#1040
0+
0I
02
#1045
1+
1I
12
b00000000001100 "/
#1046
0R
0@
b0000000000000111 ".
0:
0Q
0;
0P
b00000000000000000000000000000000 <
b000 L
#1050
0+
0I
02
1:
1Q
1;
1P
b00000000000000000000000001000100 <
b100 L
#1055
1+
1I
12
b00000000001011 "/
#1056
1R
1@
b0000000000000110 ".
#1060
0+
0I
02
#1065
1+
1I
12
b00000000001010 "/
#1066
0R
0@
b0000000000000101 ".
0:
0Q
0;
0P
b00000000000000000000000000000000 <
b000 L
#1070
0+
0I
02
1:
1Q
1;
1P
b00000000000000000000000001000100 <
b100 L
#1075
1+
1I
12
b00000000001001 "/
#1076
1R
1@
b0000000000000100 ".
#1080
0+
0I
02
#1085
1+
1I
12
b00000000001000 "/
#1086
0R
0@
b0000000000000011 ".
0:
0Q
0;
0P
b00000000000000000000000000000000 <
b000 L
#1090
0+
0I
02
1:
1Q
1;
1P
b00000000000000000000000001000100 <
b100 L
#1095
1+
1I
12
b00000000000111 "/
#1096
1R
1@
b0000000000000010 ".
#1100
0+
0I
02
#1105
1+
1I
12
b00000000000110 "/
#1106
0R
0@
b0000000000000001 ".
0:
0Q
0;
0P
b00000000000000000000000000000000 <
b000 L
#1110
0+
0I
02
1:
1Q
1;
1P
b00000000000000000000000001000100 <
b100 L
#1115
1+
1I
12
b00000000000101 "/
#1116
1R
1@
b0000000000000000 ".
#1120
0+
0I
02
#1125
1+
1I
12
b00000000000100 "/
#1126
0R
0@
b0000000000110001 ".
1",
0:
0Q
0;
0P
b00000000000000000000000000000000 <
b000 L
#1130
0+
0I
02
1:
1Q
1;
1P
b00000000000000000000000001000100 <
b100 L
#1135
1+
1I
12
b00000000000011 "/
#1136
1R
1@
b0000000000110000 ".
0",
b000000000000000010 "0
#1140
0+
0I
02
#1145
1+
1I
12
b00000000000010 "/
#1146
0R
0@
b0000000000101111 ".
0:
0Q
0;
0P
b00000000000000000000000000000000 <
b000 L
#1150
0+
0I
02
1:
1Q
1;
1P
b00000000000000000000000001000100 <
b100 L
#1155
1+
1I
12
b00000000000001 "/
#1156
1R
1@
b0000000000101110 ".
#1160
0+
0I
02
#1165
1+
1I
12
b00000000000000 "/
#1166
0R
0@
b0000000000101101 ".
0:
0Q
0;
0P
b00000000000000000000000000000000 <
b000 L
#1170
0+
0I
02
1:
1Q
1;
1P
b00000000000000000000000001000100 <
b100 L
#1175
1+
1I
12
b00000000001100 "/
#1176
1R
1@
b0000000000101100 ".
#1180
0+
0I
02
#1185
1+
1I
12
b00000000001011 "/
#1186
0R
0@
b0000000000101011 ".
0:
0Q
0;
0P
b00000000000000000000000000000000 <
b000 L
#1190
0+
0I
02
1:
1Q
1;
1P
b00000000000000000000000001000100 <
b100 L
#1195
1+
1I
12
b00000000001010 "/
#1196
1R
1@
b0000000000101010 ".
#1200
0+
0I
02
#1205
1+
1I
12
b00000000001001 "/
#1206
0R
0@
b0000000000101001 ".
0:
0Q
0;
0P
b00000000000000000000000000000000 <
b000 L
#1210
0+
0I
02
1:
1Q
1;
1P
b00000000000000000000000001000100 <
b100 L
#1215
1+
1I
12
b00000000001000 "/
#1216
1R
1@
b0000000000101000 ".
#1220
0+
0I
02
#1225
1+
1I
12
b00000000000111 "/
#1226
0R
0@
b0000000000100111 ".
0:
0Q
0;
0P
b00000000000000000000000000000000 <
b000 L
#1230
0+
0I
02
1:
1Q
1;
1P
b00000000000000000000000001000100 <
b100 L
#1235
1+
1I
12
b00000000000110 "/
#1236
1R
1@
b0000000000100110 ".
